<svg width="215" height="25" viewBox="0 0 215 25" fill="none" xmlns="http://www.w3.org/2000/svg">
<path d="M0.738375 23.7253H6.97838C10.3704 23.7253 13.0264 21.9333 13.0264 18.0933V6.22128C13.0264 2.63728 10.3704 0.909279 7.04238 0.909279H0.738375V23.7253ZM4.73838 20.2693V4.36528H6.59438C8.19438 4.36528 8.93038 5.32528 8.93038 6.63728V17.8693C8.93038 19.0213 8.32238 20.2693 6.62638 20.2693H4.73838ZM15.7696 23.7253H19.8016V0.909279H15.7696V23.7253ZM28.9129 24.0453C32.6249 24.0453 34.9609 22.0293 34.9609 18.6053V11.6613H28.5609V14.7333H31.0569V18.4133C31.0569 19.6613 30.4809 20.5573 28.9129 20.5573C27.4409 20.5573 26.6409 19.6293 26.6409 18.1573V6.41328C26.6409 5.00528 27.3769 3.98128 28.9129 3.98128C30.2569 3.98128 31.2169 4.78128 31.2169 6.09328V8.20528H34.9289V5.77328C34.9289 2.44528 32.2089 0.55728 28.8489 0.55728C25.2649 0.55728 22.5449 2.66928 22.5449 6.28528V18.2533C22.5449 22.0933 25.2329 24.0453 28.9129 24.0453ZM37.6759 23.7253H41.7079V0.909279H37.6759V23.7253ZM48.1311 23.7253H52.1951V4.33328H56.4831V0.909279H43.8111V4.33328H48.1311V23.7253ZM56.3759 23.7253H60.1199L61.1439 18.1893H65.8479L66.9039 23.7253H70.9679L66.5199 0.877279H61.0159L56.3759 23.7253ZM61.7839 14.9253L63.4799 5.45328H63.5759L65.2079 14.9253H61.7839ZM73.1759 23.7253H83.6719V20.2693H77.1759V0.909279H73.1759V23.7253ZM90.6446 23.7253H97.6526C100.661 23.7253 102.741 21.7413 102.741 17.3253C102.741 14.5093 101.621 12.6533 99.6046 12.1413V12.0133C101.365 11.5333 102.613 9.77328 102.613 6.70128C102.613 2.79728 100.725 0.909279 97.4926 0.909279H90.6446V23.7253ZM94.6446 20.4293V13.8373H96.4366C97.8126 13.8373 98.6766 14.7973 98.6766 17.0693C98.6766 19.2133 97.9726 20.4293 96.6606 20.4293H94.6446ZM94.6446 10.5413V4.17328H96.6606C97.8446 4.17328 98.6126 5.10128 98.6126 7.21328C98.6126 9.51728 97.7806 10.5413 96.4046 10.5413H94.6446ZM105.426 23.7253H109.458V14.4453H111.154L113.65 23.7253H117.842L114.802 13.5493C116.498 12.7493 117.586 10.8293 117.586 7.56528C117.586 3.05328 115.378 0.909279 111.602 0.909279H105.426V23.7253ZM109.458 11.4373V4.30128H111.25C112.85 4.30128 113.522 5.64528 113.522 7.85328C113.522 10.3493 112.722 11.4373 111.282 11.4373H109.458ZM119.501 23.7253H123.245L124.269 18.1893H128.973L130.029 23.7253H134.093L129.645 0.877279H124.141L119.501 23.7253ZM124.909 14.9253L126.605 5.45328H126.701L128.333 14.9253H124.909ZM136.301 23.7253H139.885V9.10128H139.949L145.549 23.7253H149.197V0.909279H145.613V14.0933H145.517L140.461 0.909279H136.301V23.7253ZM152.176 23.7253H158.416C161.808 23.7253 164.464 21.9333 164.464 18.0933V6.22128C164.464 2.63728 161.808 0.909279 158.48 0.909279H152.176V23.7253ZM156.176 20.2693V4.36528H158.032C159.632 4.36528 160.368 5.32528 160.368 6.63728V17.8693C160.368 19.0213 159.76 20.2693 158.064 20.2693H156.176ZM171.895 23.7253H175.927V13.9973H180.343V23.7253H184.343V0.909279H180.343V10.3173H175.927V0.909279H171.895V23.7253ZM193.315 24.0773C196.931 24.0773 199.619 21.9333 199.587 18.0933V0.909279H195.747V18.0613C195.747 19.5333 195.011 20.5253 193.571 20.5253C192.291 20.5253 191.331 19.7253 191.331 18.0293V0.909279H187.235V18.2213C187.235 22.2213 189.603 24.0773 193.315 24.0773ZM202.488 23.7253H209.496C212.504 23.7253 214.584 21.7413 214.584 17.3253C214.584 14.5093 213.464 12.6533 211.448 12.1413V12.0133C213.208 11.5333 214.456 9.77328 214.456 6.70128C214.456 2.79728 212.568 0.909279 209.336 0.909279H202.488V23.7253ZM206.488 20.4293V13.8373H208.28C209.656 13.8373 210.52 14.7973 210.52 17.0693C210.52 19.2133 209.816 20.4293 208.504 20.4293H206.488ZM206.488 10.5413V4.17328H208.504C209.688 4.17328 210.456 5.10128 210.456 7.21328C210.456 9.51728 209.624 10.5413 208.248 10.5413H206.488Z" fill="#323237"/>
</svg>
