<?xml version="1.0" encoding="utf-8"?>
<!-- Generator: Adobe Illustrator 22.1.0, SVG Export Plug-In . SVG Version: 6.00 Build 0)  -->
<svg version="1.1" id="圖層_1" xmlns="http://www.w3.org/2000/svg" xmlns:xlink="http://www.w3.org/1999/xlink" x="0px" y="0px"
	 viewBox="0 0 20 20" style="enable-background:new 0 0 20 20;" xml:space="preserve">
<style type="text/css">
	.st0{fill:none;stroke:#000000;stroke-width:1.5;stroke-linecap:round;stroke-linejoin:round;}
</style>
<path class="st0" d="M8.8,15.7c3.9,0,7.1-3.2,7.1-7.1s-3.2-7.1-7.1-7.1S1.7,4.7,1.7,8.6S4.9,15.7,8.8,15.7z"/>
<path class="st0" d="M16.9,17.6l-3.4-3.4"/>
</svg>
