<?xml version="1.0" encoding="utf-8"?>
<!-- Generator: Adobe Illustrator 22.1.0, SVG Export Plug-In . SVG Version: 6.00 Build 0)  -->
<svg version="1.1" id="圖層_1" xmlns="http://www.w3.org/2000/svg" xmlns:xlink="http://www.w3.org/1999/xlink" x="0px" y="0px"
	 viewBox="0 0 14 14" style="enable-background:new 0 0 14 14;" xml:space="preserve">
<style type="text/css">
	.st0{fill:#B9BCBF;}
</style>
<g>
	<path class="st0" d="M9.8,13.3c-0.1,0-0.3,0-0.4-0.1L3.8,7.6C3.7,7.4,3.7,7,3.8,6.8l5.7-5.7c0.2-0.2,0.5-0.2,0.7,0s0.2,0.5,0,0.7
		L4.9,7.2l5.2,5.2c0.2,0.2,0.2,0.5,0,0.7C10.1,13.3,9.9,13.3,9.8,13.3z"/>
</g>
</svg>
