<svg width="24" height="24" viewBox="0 0 24 24" fill="none" xmlns="http://www.w3.org/2000/svg">
<path fill-rule="evenodd" clip-rule="evenodd" d="M3 19H21V21H3V19Z" fill="#0069D2"/>
<path d="M7 11L12 16L17 11" stroke="#0069D2" stroke-width="2"/>
<path d="M12 16V4" stroke="#0069D2" stroke-width="2" stroke-linejoin="round"/>
</svg>
