<?xml version="1.0" encoding="utf-8"?>
<!-- Generator: Adobe Illustrator 22.1.0, SVG Export Plug-In . SVG Version: 6.00 Build 0)  -->
<svg version="1.1" id="圖層_1" xmlns="http://www.w3.org/2000/svg" xmlns:xlink="http://www.w3.org/1999/xlink" x="0px" y="0px"
	 viewBox="0 0 165.6 17.4" style="enable-background:new 0 0 165.6 17.4;" xml:space="preserve">
<style type="text/css">
	.st0{fill:#FFFFFF;}
</style>
<path class="st0" d="M1,17.4h4.9c2.6,0,4.7-1.4,4.7-4.3V4.4c0-2.8-2.1-4.1-4.7-4.1H1V17.4z M4.3,14.5V3.1h1.2c1.1,0,1.6,0.7,1.6,1.6
	v8.1c0,0.8-0.4,1.6-1.6,1.6H4.3z M12.5,17.4h3.4V0.3h-3.4V17.4z M22.7,17.6c2.9,0,4.7-1.5,4.7-4.2V8.3h-5v2.6h1.8v2.4
	c0,0.9-0.4,1.5-1.4,1.5c-1,0-1.5-0.6-1.5-1.7V4.5c0-1,0.5-1.6,1.5-1.6c0.9,0,1.6,0.5,1.6,1.4v1.5h3.1V4.1c0-2.6-2.2-4.1-4.8-4.1
	c-2.8,0-4.9,1.6-4.9,4.4v8.7C17.8,16.1,19.9,17.6,22.7,17.6z M29.3,17.4h3.4V0.3h-3.4V17.4z M37.4,17.4h3.4V3.1H44V0.3h-9.9v2.9h3.2
	V17.4z M43.9,17.4H47l0.7-3.8h3.5l0.7,3.8h3.4L52,0.2h-4.6L43.9,17.4z M48.3,10.8l1.2-6.7h0.1l1.1,6.7H48.3z M56.8,17.4h8.3v-2.9
	h-4.9V0.3h-3.4V17.4z M70.2,17.4h5.6c2.3,0,3.9-1.5,3.9-4.8c0-2.1-0.9-3.4-2.4-3.8V8.6c1.3-0.4,2.3-1.6,2.3-4c0-3-1.5-4.4-4-4.4
	h-5.5V17.4z M73.6,14.6v-4.5h1.3c0.9,0,1.5,0.6,1.5,2.2c0,1.4-0.5,2.3-1.4,2.3H73.6z M73.6,7.4V3H75c0.8,0,1.3,0.6,1.3,2.1
	c0,1.6-0.5,2.3-1.5,2.3H73.6z M81.6,17.4H85v-6.8h1.1l1.8,6.8h3.5l-2.2-7.5c1.2-0.6,2-2,2-4.5c0-3.5-1.8-5.1-4.6-5.1h-4.9V17.4z
	 M85,8.1v-5h1.2c1.1,0,1.6,0.9,1.6,2.5c0,1.8-0.6,2.5-1.5,2.5H85z M92.5,17.4h3.1l0.7-3.8h3.5l0.7,3.8h3.4l-3.3-17.1h-4.6L92.5,17.4
	z M96.8,10.8L98,4.1h0.1l1.1,6.7H96.8z M105.4,17.4h3V7.1h0.1l4,10.2h3V0.3h-3v9.1h-0.1l-3.6-9.1h-3.5V17.4z M117.6,17.4h4.9
	c2.6,0,4.7-1.4,4.7-4.3V4.4c0-2.8-2.1-4.1-4.7-4.1h-4.9V17.4z M120.9,14.5V3.1h1.2c1.1,0,1.6,0.7,1.6,1.6v8.1c0,0.8-0.4,1.6-1.6,1.6
	H120.9z M132.7,17.4h3.4v-7.1h3v7.1h3.4V0.3H139v6.9h-3V0.3h-3.4V17.4z M149.1,17.6c2.8,0,4.9-1.6,4.9-4.6V0.3h-3.2V13
	c0,1-0.5,1.7-1.5,1.7c-0.9,0-1.5-0.6-1.5-1.7V0.3h-3.4v12.8C144.4,16.2,146.2,17.6,149.1,17.6z M156,17.4h5.6c2.3,0,3.9-1.5,3.9-4.8
	c0-2.1-0.9-3.4-2.4-3.8V8.6c1.3-0.4,2.3-1.6,2.3-4c0-3-1.5-4.4-4-4.4H156V17.4z M159.4,14.6v-4.5h1.3c0.9,0,1.5,0.6,1.5,2.2
	c0,1.4-0.5,2.3-1.4,2.3H159.4z M159.4,7.4V3h1.4c0.8,0,1.3,0.6,1.3,2.1c0,1.6-0.5,2.3-1.5,2.3H159.4z"/>
</svg>
