{
    "/cooladmin_main.js": "/cooladmin_main.js",
    "/coolvendor.js": "/coolvendor.js",
    "/datetimepicker.js": "/datetimepicker.js",
    "/js/app.js": "/js/app.js",
    "/css/app.css": "/css/app.css",
    "/moment.js": "/moment.js",
    "/css/cooladmin.css": "/css/cooladmin.css",
    "/css/coolvender.css": "/css/coolvender.css"
}
